{
    "prepare_queue": {
        "installed": [],
        "uninstalled": []
    },
    "config_munge": {
        "files": {
            "res/xml/config.xml": {
                "parents": {
                    "/*": [
                        {
                            "xml": "<feature name=\"EstimoteBeacons\"><param name=\"android-package\" value=\"com.evothings.EstimoteBeacons\" /></feature>",
                            "count": 1
                        },
                        {
                            "xml": "<feature name=\"Device\"><param name=\"android-package\" value=\"org.apache.cordova.device.Device\" /></feature>",
                            "count": 1
                        },
                        {
                            "xml": "<feature name=\"Html5Video\"><param name=\"android-package\" value=\"org.apache.cordova.plugin.Html5Video\" /></feature>",
                            "count": 1
                        }
                    ]
                }
            },
            "AndroidManifest.xml": {
                "parents": {
                    "/manifest": [
                        {
                            "xml": "<uses-permission android:name=\"android.permission.BLUETOOTH\" />",
                            "count": 1
                        },
                        {
                            "xml": "<uses-permission android:name=\"android.permission.BLUETOOTH_ADMIN\" />",
                            "count": 1
                        }
                    ],
                    "/manifest/application": [
                        {
                            "xml": "<service android:exported=\"false\" android:name=\"com.estimote.sdk.service.BeaconService\" />",
                            "count": 1
                        }
                    ]
                }
            }
        }
    },
    "installed_plugins": {
        "cordova-plugin-estimote": {
            "PACKAGE_NAME": "com.fraser.android"
        },
        "jaeger.Html5Video": {
            "PACKAGE_NAME": "com.fraser.android"
        }
    },
    "dependent_plugins": {
        "cordova-plugin-device": {
            "PACKAGE_NAME": "com.fraser.android"
        }
    }
}